<br><br><br>
<table border="0" cellspacing="0" cellpadding="0" align="center">
<tr><td>
<p class=errhead>Permissions to access this area of the site have been restricted.</p>
<p>Please contact your iRecruit Administrator to allow access.</p>
</td></tr>
</table>
<br><br><br>
<br><br><br>
<br><br><br>
